{
  "o-archive-off":  "node_modules/boxicons/svg/regular/bx-archive.svg",
  "o-archive-on":   "node_modules/boxicons/svg/solid/bxs-archive.svg",
  "o-bookmarks":    "node_modules/boxicons/svg/solid/bxs-bookmarks.svg",
  "o-calendar":     "node_modules/boxicons/svg/regular/bx-calendar.svg",
  "o-check-off":    "node_modules/boxicons/svg/regular/bx-check-circle.svg",
  "o-check-on":     "node_modules/boxicons/svg/solid/bxs-check-circle.svg",
  "o-chevron-d":    "node_modules/boxicons/svg/regular/bx-chevron-down.svg",
  "o-chevron-l":    "node_modules/boxicons/svg/regular/bx-chevron-left.svg",
  "o-chevron-r":    "node_modules/boxicons/svg/regular/bx-chevron-right.svg",
  "o-chevron-u":    "node_modules/boxicons/svg/regular/bx-chevron-up.svg",
  "o-circle":       "node_modules/boxicons/svg/solid/bxs-circle.svg",
  "o-clock":        "node_modules/boxicons/svg/regular/bx-stopwatch.svg",
  "o-close":        "node_modules/boxicons/svg/regular/bx-x.svg",
  "o-collection":   "node_modules/boxicons/svg/regular/bx-collection.svg",
  "o-copy":         "node_modules/boxicons/svg/solid/bxs-copy.svg",
  "o-copyright":    "node_modules/boxicons/svg/regular/bx-copyright.svg",
  "o-create":       "node_modules/@mdi/svg/svg/plus-circle.svg",
  "o-cross":        "node_modules/boxicons/svg/solid/bxs-x-circle.svg",
  "o-download":     "node_modules/boxicons/svg/regular/bx-download.svg",
  "o-error":        "node_modules/boxicons/svg/solid/bxs-bolt-circle.svg",
  "o-favorite-off": "node_modules/boxicons/svg/regular/bx-heart.svg",
  "o-favorite-on":  "node_modules/boxicons/svg/solid/bxs-heart.svg",
  "o-file":         "node_modules/boxicons/svg/regular/bx-file.svg",
  "o-filter":       "node_modules/boxicons/svg/regular/bx-filter-alt.svg",
  "o-font":         "node_modules/boxicons/svg/regular/bx-font.svg",
  "o-font-family":  "node_modules/boxicons/svg/regular/bx-font-family.svg",
  "o-grid":         "node_modules/boxicons/svg/solid/bxs-grid.svg",
  "o-help":         "node_modules/boxicons/svg/regular/bx-help-circle.svg",
  "o-hide":         "node_modules/boxicons/svg/solid/bxs-show.svg",
  "o-highlight":    "node_modules/boxicons/svg/regular/bx-highlight.svg",
  "o-home":         "node_modules/boxicons/svg/regular/bx-home.svg",
  "o-import":       "node_modules/boxicons/svg/solid/bxs-cloud-download.svg",
  "o-info":         "node_modules/boxicons/svg/solid/bxs-info-circle.svg",
  "o-key":          "node_modules/boxicons/svg/solid/bxs-key.svg",
  "o-label":        "node_modules/boxicons/svg/regular/bx-purchase-tag-alt.svg",
  "o-library":      "node_modules/boxicons/svg/regular/bx-library.svg",
  "o-license":      "node_modules/@mdi/svg/svg/scale-balance.svg",
  "o-link":         "node_modules/boxicons/svg/regular/bx-link.svg",
  "o-link-ext":     "node_modules/boxicons/svg/regular/bx-link-external.svg",
  "o-list":         "node_modules/boxicons/svg/regular/bx-list-ul.svg",
  "o-lock":         "node_modules/boxicons/svg/regular/bx-lock.svg",
  "o-logout":       "node_modules/boxicons/svg/regular/bx-log-out.svg",
  "o-menu":         "node_modules/boxicons/svg/regular/bx-menu.svg",
  "o-menu-dots":    "node_modules/boxicons/svg/regular/bx-dots-vertical-rounded.svg",
  "o-minus":        "node_modules/boxicons/svg/regular/bx-minus.svg",
  "o-omnivore":     "media/img/logo-omnivore.svg",
  "o-pen":          "node_modules/boxicons/svg/regular/bx-pen.svg",
  "o-pencil":       "node_modules/boxicons/svg/solid/bxs-pencil.svg",
  "o-pocket":       "node_modules/boxicons/svg/logos/bxl-pocket.svg",
  "o-photo":        "node_modules/boxicons/svg/regular/bx-image.svg",
  "o-plus":         "node_modules/boxicons/svg/regular/bx-plus.svg",
  "o-share":        "node_modules/boxicons/svg/solid/bxs-share-alt.svg",
  "o-search":       "node_modules/boxicons/svg/regular/bx-search-alt.svg",
  "o-settings":     "node_modules/boxicons/svg/regular/bx-slider-alt.svg",
  "o-show":         "node_modules/boxicons/svg/solid/bxs-hide.svg",
  "o-sort":         "node_modules/boxicons/svg/regular/bx-sort.svg",
  "o-spreadsheet":  "node_modules/boxicons/svg/solid/bxs-spreadsheet.svg",
  "o-star":         "node_modules/boxicons/svg/solid/bxs-star.svg",
  "o-terminal":     "node_modules/boxicons/svg/solid/bxs-terminal.svg",
  "o-trash":        "node_modules/boxicons/svg/regular/bx-trash.svg",
  "o-theme-light":  "node_modules/@mdi/svg/svg/white-balance-sunny.svg",
  "o-theme-dark":   "node_modules/@mdi/svg/svg/weather-night.svg",
  "o-theme-system": "node_modules/@mdi/svg/svg/theme-light-dark.svg",
  "o-undo":         "node_modules/boxicons/svg/regular/bx-undo.svg",
  "o-user":         "node_modules/boxicons/svg/regular/bx-user-circle.svg",
  "o-user-admin":   "node_modules/boxicons/svg/solid/bxs-user-circle.svg",
  "o-video":        "node_modules/boxicons/svg/regular/bx-film.svg",
  "o-wallabag":     "media/img/logo-wallabag.svg",
  "o-width":        "node_modules/@mdi/svg/svg/arrow-expand-horizontal.svg",

  "o-big-arrow":    "media/img/big-arrow.svg",
  "o-sidebar":      "media/img/sidebar.svg",
  "o-spinner":      "media/img/spinner.svg",
  "o-font-size":    "node_modules/boxicons/svg/regular/bx-font-size.svg",
  "o-line-height":  "node_modules/@mdi/svg/svg/format-line-height.svg",
  "o-text-justify": "node_modules/@mdi/svg/svg/format-align-justify.svg",
  "o-text-hyphen":  "node_modules/@mdi/svg/svg/minus-thick.svg",

  "o-logo":         "media/logo.svg",
  "o-logo-square":  "media/logo-square.svg"
}
