{
  "title_selectors": [
    "//article[contains(concat(' ',normalize-space(@class),' '),' markdown-body ')]//h1"
  ],
  "body_selectors": [
    "//div[contains(concat(' ',normalize-space(@class),' '),' Box-body ')]",
    "//article[1]"
  ],
  "date_selectors": [
    "//div[contains(concat(' ',normalize-space(@class),' '),' Details ')]//relative-time"
  ],
  "author_selectors": [
    "//a[contains(concat(' ',normalize-space(@class),' '),' fn ')]"
  ],
  "strip_selectors": null,
  "strip_id_or_class": null,
  "strip_image_src": null,
  "native_ad_selectors": null,
  "tidy": false,
  "prune": false,
  "autodetect_on_failure": true,
  "single_page_link_selectors": null,
  "next_page_link_selectors": null,
  "replace_strings": null,
  "http_headers": null,
  "tests": [
    {
      "url": "https://github.com/wallabag/wallabag",
      "contains": []
    }
  ]
}
